Hands-on Exercise 5
…
1. Data Wrangling

1.1 Reformat Date using lubridate

GAStech_edges <- GAStech_edges %>%
  mutate(SendDate = dmy(SentDate)) %>%
  mutate(Weekday = wday(SentDate,
                        label = TRUE,
                        abbr = FALSE))

GAStech_edges

# A tibble: 9,063 × 10
   source target SentDate SentTime Subject   MainSubject sourceLabel targetLabel
    <dbl>  <dbl> <chr>    <time>   <chr>     <chr>       <chr>       <chr>      
 1     43     41 6/1/2014 08:39    GT-Seism… Work relat… Sven.Flecha Isak.Baza  
 2     43     40 6/1/2014 08:39    GT-Seism… Work relat… Sven.Flecha Lucas.Alca…
 3     44     51 6/1/2014 08:58    Inspecti… Work relat… Kanon.Herr… Felix.Resu…
 4     44     52 6/1/2014 08:58    Inspecti… Work relat… Kanon.Herr… Hideki.Coc…
 5     44     53 6/1/2014 08:58    Inspecti… Work relat… Kanon.Herr… Inga.Ferro 
 6     44     45 6/1/2014 08:58    Inspecti… Work relat… Kanon.Herr… Varja.Lagos
 7     44     44 6/1/2014 08:58    Inspecti… Work relat… Kanon.Herr… Kanon.Herr…
 8     44     46 6/1/2014 08:58    Inspecti… Work relat… Kanon.Herr… Stenig.Fus…
 9     44     48 6/1/2014 08:58    Inspecti… Work relat… Kanon.Herr… Hennie.Osv…
10     44     49 6/1/2014 08:58    Inspecti… Work relat… Kanon.Herr… Isia.Vann  
# ℹ 9,053 more rows
# ℹ 2 more variables: SendDate <date>, Weekday <ord>
…
1.2 Wrangling Attributes

GAStech_edges data.frame consists of individual e-mail flow records which is not very useful. We will aggregate the individual by date, senders, receivers, main subject and day of the week.

GAStech_edges_aggregated <- GAStech_edges %>%
  filter(MainSubject == "Work related") %>%
  group_by(source, target, Weekday) %>%
    summarise(Weight = n()) %>%
  filter(source!=target) %>%
  filter(Weight > 1) %>%
  ungroup()

GAStech_edges_aggregated

# A tibble: 1,372 × 4
   source target Weekday   Weight
    <dbl>  <dbl> <ord>      <int>
 1      1      2 Sunday         5
 2      1      2 Monday         2
 3      1      2 Tuesday        3
 4      1      2 Wednesday      4
 5      1      2 Friday         6
 6      1      3 Sunday         5
 7      1      3 Monday         2
 8      1      3 Tuesday        3
 9      1      3 Wednesday      4
10      1      3 Friday         6
# ℹ 1,362 more rows
…
Source

2.1 Using tbl_graph() to build tidygraph data model

GAStech_graph <- tbl_graph(nodes = GAStech_nodes,
                           edges = GAStech_edges_aggregated, 
                           directed = TRUE)
GAStech_graph

# A tbl_graph: 54 nodes and 1372 edges
#
# A directed multigraph with 1 component
#
# A tibble: 54 × 4
     id label               Department     Title                                
  <dbl> <chr>               <chr>          <chr>                                
1     1 Mat.Bramar          Administration Assistant to CEO                     
2     2 Anda.Ribera         Administration Assistant to CFO                     
3     3 Rachel.Pantanal     Administration Assistant to CIO                     
4     4 Linda.Lagos         Administration Assistant to COO                     
5     5 Ruscella.Mies.Haber Administration Assistant to Engineering Group Manag…
6     6 Carla.Forluniau     Administration Assistant to IT Group Manager        
# ℹ 48 more rows
#
# A tibble: 1,372 × 4
   from    to Weekday Weight
  <int> <int> <ord>    <int>
1     1     2 Sunday       5
2     1     2 Monday       2
3     1     2 Tuesday      3
# ℹ 1,369 more rows
…
The command also prints the first six rows of “Node Data” and the first three of “Edge Data”.

It states that the Node Data is active. The notion of an active tibble within a tbl_graph object makes it possible to manipulate the data in one tibble at a time.

2.2 Changing the active object

GAStech_graph %>%
  activate(edges) %>%
  arrange(desc(Weight))

# A tbl_graph: 54 nodes and 1372 edges
#
# A directed multigraph with 1 component
#
# A tibble: 1,372 × 4
   from    to Weekday  Weight
  <int> <int> <ord>     <int>
1    40    41 Saturday     13
2    41    43 Monday       11
3    35    31 Tuesday      10
4    40    41 Monday       10
5    40    43 Monday       10
6    36    32 Sunday        9
# ℹ 1,366 more rows
#
# A tibble: 54 × 4
     id label           Department     Title           
  <dbl> <chr>           <chr>          <chr>           
1     1 Mat.Bramar      Administration Assistant to CEO
2     2 Anda.Ribera     Administration Assistant to CFO
3     3 Rachel.Pantanal Administration Assistant to CIO
# ℹ 51 more rows
…
