Take Home Exercise 2
…
#to append correspoinding id through left_join 
MC2_challenge_edges <- MC2_challenge_edges %>%
  left_join(MC2_id_list_vis, by = c("sourcelabel" = "label")) %>%
  rename(source = id) %>%
  left_join(MC2_id_list_vis, by = c("targetlabel" = "label")) %>%
  rename(target = id) %>%
  relocate(10,14)

combined_edges_cleaned<- combined_edges %>%
  mutate(arrivaldate =ymd(arrivaldate),
         hscode = as.character(hscode))

combined_edges_cleaned

# A tibble: 2,569 × 9
   source        target dataset generated_by arrivaldate hscode valueofgoods_omu
   <chr>         <chr>  <chr>   <chr>        <date>      <chr>             <dbl>
 1 Tshimbua Gmb… "Cara… MC2     carp         2034-03-20  80440             15915
 2 Marine Maste… "Play… MC2     carp         2034-08-01  940179               NA
 3 Marine Maste… "Salt… MC2     carp         2034-11-27  940161               NA
 4 Marine Maste… "Salt… MC2     carp         2034-10-10  940161               NA
 5 zhāng yú Ges… "Port… MC2     carp         2034-04-09  40729                NA
 6 Nile   S.A. … "Cara… MC2     carp         2034-03-30  700711               NA
 7 Nile   S.A. … "Play… MC2     carp         2034-03-12  701090               NA
 8 AquaBite Lim… "Mar … MC2     carp         2034-04-02  160419            63125
 9 Limpopo Rive… "Bu y… MC2     carp         2034-01-26  841950               NA
10 Bu yu wang NV "Lake… MC2     carp         2034-12-06  200600            57020
# ℹ 2,559 more rows
# ℹ 2 more variables: volumeteu <dbl>, weightkg <int>
…
combined_nodes_rev <-MC2_id_list %>%
  filter(label %in% combined_edges_rev$source | 
           label %in% combined_edges_rev$target)

MC2_import <- tbl_graph(nodes = combined_nodes_rev,
                        edges = combined_edges_rev,
                        directed = TRUE)

MC2_import

# A tbl_graph: 253 nodes and 216 edges
#
# A directed acyclic multigraph with 70 components
#
# A tibble: 253 × 4
  label                            trade_status    shpcountry  rcvcountry
  <chr>                            <chr>           <chr>       <chr>     
1 French Crab S.p.A. Worldwide     Import & Export Kondanovia  Utoporiana
2 hǎi dǎn Corporation Wharf        Import & Export Marebak     Oceanus   
3 Sea Breezes GmbH & Co. KG Shark  Import & Export Oceanus     Oceanus   
4 Costa de la Felicidad Shipping   Import & Export Alverossia  Oceanus   
5 Mar del Este CJSC                Import & Export Merigrad    Oceanus   
6 Mandalore S.A. de C.V. Logistics Import & Export Osterivaria Oceanus   
# ℹ 247 more rows
#
# A tibble: 216 × 4
   from    to generated_by  weight
  <int> <int> <chr>          <int>
1   131    15 chub_mackerel      2
2    69     5 chub_mackerel      6
3   167    29 salmon_wgl         3
# ℹ 213 more rows

MC2_import %>%
  activate(edges) %>%
  arrange(desc(weight))

# A tbl_graph: 253 nodes and 216 edges
#
# A directed acyclic multigraph with 70 components
#
# A tibble: 216 × 4
   from    to generated_by weight
  <int> <int> <chr>         <int>
1   160   235 cod2            105
2   178   196 tuna            104
3   184   111 shark            87
4   251    15 cod2             52
5   214    71 lichen           48
6   163   127 cod2             36
# ℹ 210 more rows
#
# A tibble: 253 × 4
  label                           trade_status    shpcountry rcvcountry
  <chr>                           <chr>           <chr>      <chr>     
1 French Crab S.p.A. Worldwide    Import & Export Kondanovia Utoporiana
2 hǎi dǎn Corporation Wharf       Import & Export Marebak    Oceanus   
3 Sea Breezes GmbH & Co. KG Shark Import & Export Oceanus    Oceanus   
# ℹ 250 more rows
…
